{
  "development": {
    "username": "galih",
    "password": "galih2983901831jahdjhs",
    "database": "galih_db",
    "host": "68.183.189.214",
    "dialect": "postgres",
    "port": 6432
  },
  "test": {
    "username": "galih",
    "password": "galih2983901831jahdjhs",
    "database": "galih_db",
    "host": "68.183.189.214",
    "dialect": "postgres",
    "port": 6432
  },
  "production": {
    "username": "galih",
    "password": "galih2983901831jahdjhs",
    "database": "galih_db",
    "host": "68.183.189.214",
    "dialect": "postgres",
    "port": 6432
  }
}